\relax 
\@writefile{toc}{\contentsline {section}{\numberline {1}Introduction}{1}}
\newlabel{eq-int}{{1}{1}}
\newlabel{eq-dif}{{2}{1}}
\@writefile{lof}{\contentsline {figure}{\numberline {1}{\ignorespaces Error function}}{2}}
\newlabel{fig-erf}{{1}{2}}
