\relax 
\providecommand\hyper@newdestlabel[2]{}
\providecommand\HyperFirstAtBeginDocument{\AtBeginDocument}
\HyperFirstAtBeginDocument{\ifx\hyper@anchor\@undefined
\global\let\oldcontentsline\contentsline
\gdef\contentsline#1#2#3#4{\oldcontentsline{#1}{#2}{#3}}
\global\let\oldnewlabel\newlabel
\gdef\newlabel#1#2{\newlabelxx{#1}#2}
\gdef\newlabelxx#1#2#3#4#5#6{\oldnewlabel{#1}{{#2}{#3}}}
\AtEndDocument{\ifx\hyper@anchor\@undefined
\let\contentsline\oldcontentsline
\let\newlabel\oldnewlabel
\fi}
\fi}
\global\let\hyper@last\relax 
\gdef\HyperFirstAtBeginDocument#1{#1}
\providecommand\HyField@AuxAddToFields[1]{}
\providecommand\HyField@AuxAddToCoFields[2]{}
\newlabel{eq-dif}{{1}{1}{Arccotangent function using ODE representation}{equation.0.1}{}}
\@writefile{lof}{\contentsline {figure}{\numberline {1}{\ignorespaces Numerical intergration of equation \ref  {eq-dif} plotted with blue points and implementation function from \texttt  {<math.h>} is plotted with red points.}}{2}{figure.1}}
\newlabel{fig-plot}{{1}{2}{Numerical intergration of equation \ref {eq-dif} plotted with blue points and implementation function from \texttt {<math.h>} is plotted with red points}{figure.1}{}}
