0.3 5.67909
0.4 5.51345
0.5 5.35378
0.6 5.19986
0.7 5.05149
0.8 4.90847
0.9 4.77061
1 4.63771
1.1 4.50961
1.2 4.38612
1.3 4.26709
1.4 4.15234
1.5 4.04174
1.6 3.93511
1.7 3.83234
1.8 3.73326
1.9 3.63776
2 3.5457
2.1 3.45696
2.2 3.37142
2.3 3.28897
2.4 3.20948
2.5 3.13286
2.6 3.059
2.7 2.98781
2.8 2.91918
2.9 2.85302
3 2.78925
3.1 2.72778
3.2 2.66852
3.3 2.6114
3.4 2.55634
3.5 2.50326
3.6 2.4521
3.7 2.40278
3.8 2.35524
3.9 2.30941
4 2.26524
4.1 2.22266
4.2 2.18161
4.3 2.14204
4.4 2.1039
4.5 2.06713
4.6 2.03169
4.7 1.99752
4.8 1.96459
4.9 1.93285
5 1.90225
5.1 1.87275
5.2 1.84431
5.3 1.8169
5.4 1.79048
5.5 1.76501
5.6 1.74046
5.7 1.71679
5.8 1.69398
5.9 1.67199
6 1.65079
6.1 1.63036
6.2 1.61066
6.3 1.59167
6.4 1.57337
6.5 1.55573
6.6 1.53872
6.7 1.52233
6.8 1.50652
6.9 1.49129
7 1.47661
7.1 1.46245
7.2 1.44881
7.3 1.43565
7.4 1.42298
7.5 1.41075
7.6 1.39897
7.7 1.38762
7.8 1.37667
7.9 1.36612
8 1.35594
8.1 1.34614
8.2 1.33669
8.3 1.32758
8.4 1.31879
8.5 1.31033
8.6 1.30217
8.7 1.2943
8.8 1.28672
8.9 1.27941
9 1.27236
9.1 1.26557
