0 0 0
0.01 0.00990048 0.0099005
0.02 0.0196039 0.019604
0.03 0.0291133 0.0291134
0.04 0.0384315 0.0384316
0.05 0.0475614 0.0475615
0.06 0.0565058 0.0565059
0.07 0.0652675 0.0652676
0.08 0.0738492 0.0738493
0.09 0.0822537 0.0822538
0.1 0.0904836 0.0904837
0.11 0.0985416 0.0985418
0.12 0.10643 0.10643
0.13 0.114152 0.114152
0.14 0.12171 0.12171
0.15 0.129106 0.129106
0.16 0.136343 0.136343
0.17 0.143423 0.143423
0.18 0.150348 0.150349
0.19 0.157122 0.157122
0.2 0.163746 0.163746
0.21 0.170222 0.170223
0.22 0.176554 0.176554
0.23 0.182742 0.182743
0.24 0.18879 0.188791
0.25 0.1947 0.1947
0.26 0.200473 0.200473
0.27 0.206112 0.206112
0.28 0.211619 0.211619
0.29 0.216996 0.216996
0.3 0.222245 0.222245
0.31 0.227368 0.227369
0.32 0.232367 0.232368
0.33 0.237244 0.237245
0.34 0.242001 0.242002
0.35 0.24664 0.246641
0.36 0.251163 0.251163
0.37 0.255571 0.255572
0.38 0.259867 0.259867
0.39 0.264052 0.264052
0.4 0.268127 0.268128
0.41 0.272096 0.272097
0.42 0.275959 0.27596
0.43 0.279718 0.279719
0.44 0.283375 0.283376
0.45 0.286932 0.286933
0.46 0.29039 0.29039
0.47 0.29375 0.293751
0.48 0.297015 0.297016
0.49 0.300186 0.300187
0.5 0.303264 0.303265
0.51 0.306252 0.306253
0.52 0.30915 0.309151
0.53 0.31196 0.311961
0.54 0.314683 0.314684
0.55 0.317321 0.317322
0.56 0.319876 0.319877
0.57 0.322348 0.32235
0.58 0.32474 0.324741
0.59 0.327052 0.327053
0.6 0.329286 0.329287
0.61 0.331443 0.331444
0.62 0.333524 0.333526
0.63 0.335531 0.335533
0.64 0.337466 0.337467
0.65 0.339328 0.33933
0.66 0.34112 0.341122
0.67 0.342843 0.342845
0.68 0.344498 0.3445
0.69 0.346086 0.346087
0.7 0.347608 0.34761
0.71 0.349065 0.349067
0.72 0.35046 0.350462
0.73 0.351791 0.351794
0.74 0.353062 0.353064
0.75 0.354273 0.354275
0.76 0.355424 0.355426
0.77 0.356518 0.35652
0.78 0.357554 0.357557
0.79 0.358535 0.358537
0.8 0.359461 0.359463
0.81 0.360332 0.360335
0.82 0.361151 0.361154
0.83 0.361918 0.361921
0.84 0.362634 0.362637
0.85 0.3633 0.363303
0.86 0.363916 0.363919
0.87 0.364485 0.364488
0.88 0.365006 0.365009
0.89 0.36548 0.365484
0.9 0.365909 0.365913
0.91 0.366294 0.366297
0.92 0.366634 0.366638
0.93 0.366931 0.366935
0.94 0.367186 0.36719
0.95 0.3674 0.367404
0.96 0.367573 0.367577
0.97 0.367706 0.367711
0.98 0.367801 0.367805
0.99 0.367857 0.367861
1 0.367875 0.367879
1.01 0.367857 0.367861
1.02 0.367802 0.367807
1.03 0.367712 0.367717
1.04 0.367588 0.367593
1.05 0.36743 0.367435
1.06 0.367238 0.367243
1.07 0.367014 0.367019
1.08 0.366758 0.366763
1.09 0.366471 0.366476
1.1 0.366153 0.366158
1.11 0.365805 0.36581
1.12 0.365428 0.365433
1.13 0.365022 0.365028
1.14 0.364588 0.364594
1.15 0.364126 0.364132
1.16 0.363638 0.363644
1.17 0.363123 0.363129
1.18 0.362582 0.362589
1.19 0.362017 0.362023
1.2 0.361426 0.361433
1.21 0.360812 0.360819
1.22 0.360174 0.360181
1.23 0.359513 0.35952
1.24 0.358829 0.358836
1.25 0.358124 0.358131
1.26 0.357397 0.357404
1.27 0.356648 0.356656
1.28 0.35588 0.355888
1.29 0.355091 0.355099
1.3 0.354283 0.354291
1.31 0.353456 0.353464
1.32 0.35261 0.352619
1.33 0.351746 0.351755
1.34 0.350864 0.350873
1.35 0.349965 0.349974
1.36 0.34905 0.349059
1.37 0.348117 0.348127
1.38 0.347169 0.347178
1.39 0.346205 0.346215
1.4 0.345226 0.345236
1.41 0.344232 0.344242
1.42 0.343224 0.343234
1.43 0.342202 0.342212
1.44 0.341166 0.341176
1.45 0.340116 0.340127
1.46 0.339054 0.339065
1.47 0.33798 0.33799
1.48 0.336893 0.336904
1.49 0.335794 0.335805
1.5 0.334684 0.334695
1.51 0.333563 0.333574
1.52 0.33243 0.332442
1.53 0.331288 0.3313
1.54 0.330135 0.330147
1.55 0.328972 0.328984
1.56 0.3278 0.327812
1.57 0.326618 0.326631
1.58 0.325428 0.325441
1.59 0.324229 0.324242
1.6 0.323021 0.323034
1.61 0.321806 0.321819
1.62 0.320582 0.320596
1.63 0.319352 0.319365
1.64 0.318113 0.318127
1.65 0.316868 0.316882
1.66 0.315617 0.315631
1.67 0.314358 0.314373
1.68 0.313094 0.313108
1.69 0.311823 0.311838
1.7 0.310547 0.310562
1.71 0.309265 0.309281
1.72 0.307978 0.307994
1.73 0.306686 0.306702
1.74 0.30539 0.305405
1.75 0.304088 0.304104
1.76 0.302783 0.302799
1.77 0.301473 0.301489
1.78 0.300159 0.300176
1.79 0.298842 0.298859
1.8 0.297521 0.297538
1.81 0.296197 0.296214
1.82 0.294869 0.294887
1.83 0.293539 0.293557
1.84 0.292206 0.292224
1.85 0.290871 0.290889
1.86 0.289533 0.289551
1.87 0.288193 0.288211
1.88 0.286851 0.286869
1.89 0.285507 0.285526
1.9 0.284161 0.28418
1.91 0.282814 0.282834
1.92 0.281466 0.281485
1.93 0.280116 0.280136
1.94 0.278766 0.278786
1.95 0.277414 0.277434
1.96 0.276062 0.276083
1.97 0.274709 0.27473
1.98 0.273356 0.273377
1.99 0.272003 0.272024
2 0.270649 0.270671
2.01 0.269296 0.269317
2.02 0.267942 0.267964
2.03 0.266589 0.266611
2.04 0.265236 0.265259
2.05 0.263884 0.263907
2.06 0.262532 0.262555
2.07 0.261181 0.261205
2.08 0.259831 0.259855
2.09 0.258482 0.258506
2.1 0.257135 0.257158
2.11 0.255788 0.255812
2.12 0.254443 0.254467
2.13 0.253099 0.253123
2.14 0.251756 0.251781
2.15 0.250416 0.250441
2.16 0.249077 0.249102
2.17 0.24774 0.247765
2.18 0.246405 0.246431
2.19 0.245071 0.245098
2.2 0.24374 0.243767
2.21 0.242412 0.242438
2.22 0.241085 0.241112
2.23 0.239761 0.239788
2.24 0.23844 0.238467
2.25 0.23712 0.237148
2.26 0.235804 0.235832
2.27 0.23449 0.234519
2.28 0.233179 0.233208
2.29 0.231871 0.2319
2.3 0.230566 0.230595
2.31 0.229264 0.229293
2.32 0.227965 0.227995
2.33 0.226669 0.226699
2.34 0.225376 0.225407
2.35 0.224087 0.224118
2.36 0.222801 0.222832
2.37 0.221518 0.221549
2.38 0.220239 0.22027
2.39 0.218963 0.218995
2.4 0.217691 0.217723
2.41 0.216422 0.216455
2.42 0.215158 0.21519
2.43 0.213897 0.21393
2.44 0.212639 0.212672
2.45 0.211386 0.211419
2.46 0.210136 0.21017
2.47 0.20889 0.208925
2.48 0.207649 0.207683
2.49 0.206411 0.206446
2.5 0.205177 0.205212
2.51 0.203948 0.203983
2.52 0.202722 0.202758
2.53 0.201501 0.201537
2.54 0.200284 0.200321
2.55 0.199072 0.199108
2.56 0.197863 0.1979
2.57 0.196659 0.196696
2.58 0.195459 0.195497
2.59 0.194264 0.194302
2.6 0.193073 0.193111
2.61 0.191887 0.191925
2.62 0.190705 0.190744
2.63 0.189527 0.189566
2.64 0.188354 0.188394
2.65 0.187186 0.187226
2.66 0.186022 0.186062
2.67 0.184863 0.184903
2.68 0.183708 0.183749
2.69 0.182558 0.1826
2.7 0.181413 0.181455
2.71 0.180273 0.180315
2.72 0.179137 0.179179
2.73 0.178006 0.178049
2.74 0.17688 0.176923
2.75 0.175758 0.175802
2.76 0.174641 0.174685
2.77 0.173529 0.173574
2.78 0.172422 0.172467
2.79 0.17132 0.171365
2.8 0.170223 0.170268
2.81 0.16913 0.169176
2.82 0.168043 0.168089
2.83 0.16696 0.167006
2.84 0.165882 0.165929
2.85 0.164809 0.164856
2.86 0.163741 0.163789
2.87 0.162678 0.162726
2.88 0.16162 0.161668
2.89 0.160566 0.160615
2.9 0.159518 0.159567
2.91 0.158475 0.158524
2.92 0.157436 0.157486
2.93 0.156403 0.156453
2.94 0.155374 0.155425
2.95 0.154351 0.154402
2.96 0.153332 0.153384
2.97 0.152319 0.152371
2.98 0.15131 0.151363
2.99 0.150307 0.150359
3 0.149308 0.149361
3.01 0.148314 0.148368
3.02 0.147326 0.14738
3.03 0.146342 0.146396
3.04 0.145363 0.145418
3.05 0.144389 0.144445
3.06 0.143421 0.143476
3.07 0.142457 0.142513
3.08 0.141498 0.141555
3.09 0.140544 0.140601
3.1 0.139595 0.139653
3.11 0.138651 0.138709
3.12 0.137712 0.13777
3.13 0.136778 0.136837
3.14 0.135849 0.135908
3.15 0.134924 0.134984
3.16 0.134005 0.134065
3.17 0.133091 0.133151
3.18 0.132181 0.132242
3.19 0.131277 0.131338
3.2 0.130377 0.130439
3.21 0.129482 0.129545
3.22 0.128592 0.128655
3.23 0.127707 0.127771
3.24 0.126827 0.126891
3.25 0.125952 0.126016
3.26 0.125081 0.125146
3.27 0.124215 0.124281
3.28 0.123355 0.123421
3.29 0.122499 0.122565
3.3 0.121647 0.121714
3.31 0.120801 0.120869
3.32 0.119959 0.120027
3.33 0.119122 0.119191
3.34 0.11829 0.118359
3.35 0.117463 0.117533
3.36 0.11664 0.11671
3.37 0.115822 0.115893
3.38 0.115009 0.11508
3.39 0.114201 0.114272
3.4 0.113397 0.113469
3.41 0.112598 0.11267
3.42 0.111803 0.111877
3.43 0.111013 0.111087
3.44 0.110228 0.110303
3.45 0.109447 0.109522
3.46 0.108671 0.108747
3.47 0.1079 0.107976
3.48 0.107133 0.10721
3.49 0.106371 0.106448
3.5 0.105613 0.105691
3.51 0.10486 0.104938
3.52 0.104111 0.10419
3.53 0.103367 0.103446
3.54 0.102627 0.102707
3.55 0.101892 0.101972
3.56 0.101161 0.101242
3.57 0.100434 0.100516
3.58 0.0997122 0.099795
3.59 0.0989946 0.099078
3.6 0.0982814 0.0983654
3.61 0.0975725 0.0976572
3.62 0.096868 0.0969533
3.63 0.0961679 0.0962537
3.64 0.095472 0.0955585
3.65 0.0947805 0.0948676
3.66 0.0940932 0.094181
3.67 0.0934102 0.0934986
3.68 0.0927314 0.0928205
3.69 0.0920569 0.0921467
3.7 0.0913866 0.091477
3.71 0.0907205 0.0908116
3.72 0.0900586 0.0901504
3.73 0.0894008 0.0894933
3.74 0.0887472 0.0888403
3.75 0.0880977 0.0881915
3.76 0.0874523 0.0875469
3.77 0.0868111 0.0869063
3.78 0.0861738 0.0862698
3.79 0.0855407 0.0856373
3.8 0.0849116 0.0850089
3.81 0.0842865 0.0843846
3.82 0.0836654 0.0837642
3.83 0.0830483 0.0831478
3.84 0.0824351 0.0825354
3.85 0.0818259 0.081927
3.86 0.0812206 0.0813225
3.87 0.0806193 0.0807219
3.88 0.0800218 0.0801252
3.89 0.0794282 0.0795324
3.9 0.0788385 0.0789435
3.91 0.0782526 0.0783584
3.92 0.0776705 0.0777771
3.93 0.0770922 0.0771996
3.94 0.0765177 0.076626
3.95 0.075947 0.0760561
3.96 0.0753801 0.0754899
3.97 0.0748169 0.0749275
3.98 0.0742574 0.0743688
3.99 0.0737016 0.0738139
4 0.0731495 0.0732626
4.01 0.072601 0.0727149
4.02 0.0720562 0.0721709
4.03 0.071515 0.0716305
4.04 0.0709774 0.0710938
4.05 0.0704433 0.0705606
4.06 0.0699129 0.070031
4.07 0.069386 0.069505
4.08 0.0688626 0.0689825
4.09 0.0683427 0.0684635
4.1 0.0678264 0.067948
4.11 0.0673135 0.067436
4.12 0.066804 0.0669274
4.13 0.066298 0.0664223
4.14 0.0657954 0.0659206
4.15 0.0652962 0.0654223
4.16 0.0648004 0.0649274
4.17 0.064308 0.0644359
4.18 0.0638189 0.0639478
4.19 0.0633331 0.0634629
4.2 0.0628506 0.0629814
4.21 0.0623715 0.0625032
4.22 0.0618956 0.0620283
4.23 0.0614229 0.0615566
4.24 0.0609535 0.0610882
4.25 0.0604873 0.060623
4.26 0.0600244 0.060161
4.27 0.0595646 0.0597022
4.28 0.0591079 0.0592466
4.29 0.0586544 0.0587941
4.3 0.0582041 0.0583448
4.31 0.0577568 0.0578986
4.32 0.0573127 0.0574555
4.33 0.0568716 0.0570155
4.34 0.0564336 0.0565785
4.35 0.0559986 0.0561446
4.36 0.0555667 0.0557138
4.37 0.0551378 0.0552859
4.38 0.0547118 0.0548611
4.39 0.0542888 0.0544392
4.4 0.0538688 0.0540203
4.41 0.0534517 0.0536043
4.42 0.0530375 0.0531913
4.43 0.0526263 0.0527812
4.44 0.0522179 0.052374
4.45 0.0518124 0.0519696
4.46 0.0514097 0.0515681
4.47 0.0510099 0.0511695
4.48 0.0506128 0.0507737
4.49 0.0502186 0.0503807
4.5 0.0498272 0.0499905
4.51 0.0494385 0.0496031
4.52 0.0490526 0.0492184
4.53 0.0486694 0.0488365
4.54 0.048289 0.0484573
4.55 0.0479113 0.0480808
4.56 0.0475362 0.047707
4.57 0.0471639 0.0473359
4.58 0.0467941 0.0469674
4.59 0.0464271 0.0466016
4.6 0.0460626 0.0462384
4.61 0.0457007 0.0458779
4.62 0.0453415 0.0455199
4.63 0.0449848 0.0451645
4.64 0.0446306 0.0448117
4.65 0.044279 0.0444614
4.66 0.0439299 0.0441137
4.67 0.0435833 0.0437685
4.68 0.0432392 0.0434258
4.69 0.0428976 0.0430856
4.7 0.0425585 0.0427478
4.71 0.0422218 0.0424125
4.72 0.0418875 0.0420796
4.73 0.0415556 0.0417492
4.74 0.0412262 0.0414212
4.75 0.0408991 0.0410956
4.76 0.0405744 0.0407723
4.77 0.040252 0.0404514
4.78 0.039932 0.0401329
4.79 0.0396143 0.0398167
4.8 0.0392989 0.0395028
4.81 0.0389858 0.0391912
4.82 0.0386749 0.0388819
4.83 0.0383664 0.0385749
4.84 0.0380601 0.0382701
4.85 0.037756 0.0379676
4.86 0.0374541 0.0376674
4.87 0.0371544 0.0373693
4.88 0.036857 0.0370734
4.89 0.0365617 0.0367798
4.9 0.0362685 0.0364883
4.91 0.0359775 0.0361989
4.92 0.0356887 0.0359117
4.93 0.0354019 0.0356267
4.94 0.0351173 0.0353437
4.95 0.0348347 0.0350629
4.96 0.0345542 0.0347841
4.97 0.0342758 0.0345074
4.98 0.0339994 0.0342328
4.99 0.0337251 0.0339603
5 0.0334528 0.0336897
5.01 0.0331825 0.0334212
5.02 0.0329141 0.0331547
5.03 0.0326478 0.0328902
5.04 0.0323834 0.0326277
5.05 0.032121 0.0323671
5.06 0.0318605 0.0321085
5.07 0.0316019 0.0318519
5.08 0.0313453 0.0315971
5.09 0.0310905 0.0313443
5.1 0.0308377 0.0310934
5.11 0.0305867 0.0308444
5.12 0.0303376 0.0305972
5.13 0.0300903 0.030352
5.14 0.0298449 0.0301085
5.15 0.0296013 0.0298669
5.16 0.0293596 0.0296272
5.17 0.0291196 0.0293892
5.18 0.0288814 0.0291531
5.19 0.0286449 0.0289187
5.2 0.0284103 0.0286861
5.21 0.0281774 0.0284553
5.22 0.0279462 0.0282263
5.23 0.0277167 0.0279989
5.24 0.027489 0.0277733
5.25 0.0272629 0.0275495
5.26 0.0270386 0.0273273
5.27 0.0268159 0.0271068
5.28 0.0265949 0.026888
5.29 0.0263755 0.0266709
5.3 0.0261578 0.0264554
5.31 0.0259417 0.0262416
5.32 0.0257272 0.0260294
5.33 0.0255143 0.0258189
5.34 0.025303 0.0256099
5.35 0.0250933 0.0254026
5.36 0.0248852 0.0251969
5.37 0.0246786 0.0249927
5.38 0.0244736 0.0247901
5.39 0.0242701 0.024589
5.4 0.0240682 0.0243895
5.41 0.0238677 0.0241916
5.42 0.0236688 0.0239951
5.43 0.0234713 0.0238002
5.44 0.0232754 0.0236068
5.45 0.0230809 0.0234149
5.46 0.0228879 0.0232244
5.47 0.0226963 0.0230354
5.48 0.0225061 0.0228479
5.49 0.0223174 0.0226619
5.5 0.0221301 0.0224772
5.51 0.0219442 0.0222941
5.52 0.0217597 0.0221123
5.53 0.0215766 0.0219319
5.54 0.0213949 0.021753
5.55 0.0212145 0.0215754
5.56 0.0210355 0.0213992
5.57 0.0208579 0.0212244
5.58 0.0206816 0.0210509
5.59 0.0205066 0.0208788
5.6 0.0203329 0.020708
5.61 0.0201605 0.0205386
5.62 0.0199894 0.0203705
5.63 0.0198196 0.0202037
5.64 0.0196511 0.0200382
5.65 0.0194838 0.019874
5.66 0.0193178 0.019711
5.67 0.0191531 0.0195494
5.68 0.0189896 0.019389
5.69 0.0188274 0.0192299
5.7 0.0186663 0.019072
5.71 0.0185065 0.0189154
5.72 0.0183479 0.0187599
5.73 0.0181905 0.0186058
5.74 0.0180342 0.0184528
5.75 0.0178792 0.018301
5.76 0.0177253 0.0181504
5.77 0.0175725 0.018001
5.78 0.0174209 0.0178528
5.79 0.0172705 0.0177057
5.8 0.0171211 0.0175598
5.81 0.0169729 0.0174151
5.82 0.0168259 0.0172715
5.83 0.0166799 0.017129
5.84 0.016535 0.0169876
5.85 0.0163912 0.0168474
5.86 0.0162484 0.0167083
5.87 0.0161068 0.0165703
5.88 0.0159662 0.0164333
5.89 0.0158267 0.0162975
5.9 0.0156882 0.0161627
5.91 0.0155507 0.016029
5.92 0.0154143 0.0158964
5.93 0.0152789 0.0157648
5.94 0.0151445 0.0156343
5.95 0.0150111 0.0155048
5.96 0.0148787 0.0153763
5.97 0.0147473 0.0152488
5.98 0.0146169 0.0151224
5.99 0.0144874 0.0149969
6 0.0143589 0.0148725
6.01 0.0142314 0.0147491
6.02 0.0141048 0.0146266
6.03 0.0139792 0.0145051
6.04 0.0138545 0.0143846
6.05 0.0137307 0.0142651
6.06 0.0136078 0.0141465
6.07 0.0134859 0.0140288
6.08 0.0133648 0.0139121
6.09 0.0132447 0.0137963
6.1 0.0131254 0.0136815
6.11 0.013007 0.0135676
6.12 0.0128895 0.0134546
6.13 0.0127729 0.0133424
6.14 0.0126571 0.0132312
6.15 0.0125422 0.0131209
6.16 0.0124281 0.0130115
6.17 0.0123149 0.0129029
6.18 0.0122025 0.0127952
6.19 0.0120909 0.0126884
6.2 0.0119801 0.0125825
6.21 0.0118701 0.0124774
6.22 0.011761 0.0123731
6.23 0.0116526 0.0122697
6.24 0.0115451 0.0121671
6.25 0.0114383 0.0120653
6.26 0.0113323 0.0119644
6.27 0.0112271 0.0118643
6.28 0.0111226 0.011765
6.29 0.0110189 0.0116664
6.3 0.010916 0.0115687
6.31 0.0108138 0.0114718
6.32 0.0107123 0.0113756
6.33 0.0106116 0.0112803
6.34 0.0105116 0.0111857
6.35 0.0104123 0.0110918
6.36 0.0103138 0.0109988
6.37 0.0102159 0.0109065
6.38 0.0101187 0.0108149
6.39 0.0100223 0.0107241
6.4 0.00992649 0.010634
6.41 0.00983139 0.0105446
6.42 0.00973697 0.010456
6.43 0.00964323 0.0103681
6.44 0.00955014 0.0102809
6.45 0.00945772 0.0101944
6.46 0.00936594 0.0101086
6.47 0.00927482 0.0100235
6.48 0.00918433 0.00993909
6.49 0.00909448 0.00985538
6.5 0.00900526 0.00977235
6.51 0.00891666 0.00969
6.52 0.00882868 0.00960832
6.53 0.00874131 0.00952731
6.54 0.00865454 0.00944695
6.55 0.00856838 0.00936726
6.56 0.00848282 0.00928821
6.57 0.00839784 0.00920981
6.58 0.00831344 0.00913205
6.59 0.00822963 0.00905492
6.6 0.00814639 0.00897843
6.61 0.00806371 0.00890256
6.62 0.0079816 0.00882731
6.63 0.00790005 0.00875268
6.64 0.00781904 0.00867866
6.65 0.00773858 0.00860525
6.66 0.00765867 0.00853243
6.67 0.00757928 0.00846022
6.68 0.00750043 0.0083886
6.69 0.00742211 0.00831756
6.7 0.0073443 0.00824711
6.71 0.00726701 0.00817724
6.72 0.00719023 0.00810794
6.73 0.00711395 0.00803921
6.74 0.00703817 0.00797104
6.75 0.00696289 0.00790344
6.76 0.00688809 0.00783639
6.77 0.00681378 0.00776989
6.78 0.00673995 0.00770394
6.79 0.00666659 0.00763854
6.8 0.0065937 0.00757367
6.81 0.00652128 0.00750934
6.82 0.00644932 0.00744554
6.83 0.00637782 0.00738226
6.84 0.00630678 0.00731951
6.85 0.00623618 0.00725727
6.86 0.00616603 0.00719555
6.87 0.00609631 0.00713434
6.88 0.00602702 0.00707363
6.89 0.00595816 0.00701343
6.9 0.00588973 0.00695372
6.91 0.00582171 0.00689451
6.92 0.0057541 0.00683578
6.93 0.00568691 0.00677755
6.94 0.00562012 0.00671979
6.95 0.00555373 0.00666251
6.96 0.00548773 0.00660571
6.97 0.00542213 0.00654938
6.98 0.00535691 0.00649352
6.99 0.00529207 0.00643812
7 0.00522762 0.00638317
7.01 0.00516353 0.00632869
7.02 0.00509982 0.00627465
7.03 0.00503647 0.00622107
7.04 0.00497348 0.00616793
7.05 0.00491084 0.00611523
7.06 0.00484856 0.00606297
7.07 0.00478662 0.00601115
7.08 0.00472503 0.00595975
7.09 0.00466378 0.00590879
7.1 0.00460286 0.00585824
7.11 0.00454227 0.00580812
7.12 0.00448201 0.00575842
7.13 0.00442207 0.00570913
7.14 0.00436245 0.00566025
7.15 0.00430315 0.00561178
7.16 0.00424415 0.00556371
7.17 0.00418546 0.00551604
7.18 0.00412707 0.00546878
7.19 0.00406898 0.0054219
7.2 0.00401118 0.00537542
7.21 0.00395367 0.00532932
7.22 0.00389645 0.00528361
7.23 0.0038395 0.00523829
7.24 0.00378284 0.00519334
7.25 0.00372645 0.00514876
7.26 0.00367033 0.00510456
7.27 0.00361447 0.00506073
7.28 0.00355888 0.00501727
7.29 0.00350354 0.00497417
7.3 0.00344846 0.00493143
7.31 0.00339363 0.00488905
7.32 0.00333904 0.00484703
7.33 0.0032847 0.00480535
7.34 0.00323059 0.00476403
7.35 0.00317672 0.00472305
7.36 0.00312308 0.00468242
7.37 0.00306967 0.00464213
7.38 0.00301648 0.00460217
7.39 0.00296351 0.00456256
7.4 0.00291075 0.00452327
7.41 0.00285821 0.00448431
7.42 0.00280588 0.00444569
7.43 0.00275376 0.00440738
7.44 0.00270184 0.0043694
7.45 0.00265012 0.00433174
7.46 0.00259859 0.0042944
7.47 0.00254726 0.00425736
7.48 0.0024961 0.00422065
7.49 0.00244514 0.00418424
7.5 0.00239435 0.00414813
7.51 0.00234373 0.00411233
7.52 0.00229329 0.00407684
7.53 0.00224302 0.00404164
7.54 0.00219291 0.00400674
7.55 0.00214297 0.00397213
7.56 0.00209318 0.00393782
7.57 0.00204354 0.00390379
7.58 0.00199405 0.00387005
7.59 0.00194472 0.0038366
7.6 0.00189552 0.00380343
7.61 0.00184646 0.00377054
7.62 0.00179755 0.00373793
7.63 0.00174876 0.00370559
7.64 0.0017001 0.00367353
7.65 0.00165157 0.00364174
7.66 0.00160316 0.00361021
7.67 0.00155487 0.00357896
7.68 0.00150669 0.00354797
7.69 0.00145862 0.00351724
7.7 0.00141066 0.00348677
7.71 0.00136281 0.00345656
7.72 0.00131506 0.0034266
7.73 0.0012674 0.0033969
7.74 0.00121984 0.00336745
7.75 0.00117237 0.00333825
7.76 0.00112499 0.0033093
7.77 0.00107769 0.0032806
7.78 0.00103047 0.00325213
7.79 0.000983322 0.00322391
7.8 0.000936251 0.00319593
7.81 0.00088925 0.00316819
7.82 0.000842314 0.00314068
7.83 0.000795442 0.00311341
7.84 0.000748628 0.00308637
7.85 0.00070187 0.00305955
7.86 0.000655164 0.00303297
7.87 0.000608507 0.00300661
7.88 0.000561896 0.00298048
7.89 0.000515326 0.00295456
7.9 0.000468794 0.00292887
7.91 0.000422297 0.0029034
7.92 0.000375832 0.00287815
7.93 0.000329394 0.00285311
7.94 0.000282981 0.00282828
7.95 0.000236589 0.00280366
7.96 0.000190215 0.00277926
7.97 0.000143854 0.00275506
7.98 9.75039e-05 0.00273107
7.99 5.11609e-05 0.00270728
8 4.82138e-06 0.0026837
